Forecasting with R
…
This looks good.

4.7 Predict.

The sw_augument() function helps with model evaluation. We get the “.actual”, “.fitted” and “.resid” columns, which are useful in evaluating the model against the training data. Note that we can pass timetk_idx = TRUE to return the original date index.

Code

# sw_augment - get model residuals
sw_augment(fit_arima, timetk_idx = TRUE)

# A tibble: 144 × 4
   index      .actual .fitted .resid
   <date>       <dbl>   <dbl>  <dbl>
 1 2010-01-01    6558   6554.  3.79 
 2 2010-02-01    7481   7479.  2.41 
 3 2010-03-01    9475   9472.  3.26 
 4 2010-04-01    9424   9422.  2.39 
 5 2010-05-01    9351   9349.  1.84 
 6 2010-06-01   10552  10549.  2.63 
 7 2010-07-01    9077   9076.  0.882
 8 2010-08-01    9273   9272.  0.956
 9 2010-09-01    9420   9419.  0.988
10 2010-10-01    9413   9412.  0.882
# ℹ 134 more rows
…
